2016-12-20 12:53:27 10208 [Note] Plugin 'FEDERATED' is disabled.
2016-12-20 12:53:27 10208 [Note] InnoDB: The InnoDB memory heap is disabled
2016-12-20 12:53:27 10208 [Note] InnoDB: Mutexes and rw_locks use Windows interlocked functions
2016-12-20 12:53:27 10208 [Note] InnoDB: Compressed tables use zlib 1.2.3
2016-12-20 12:53:27 10208 [Note] InnoDB: Not using CPU crc32 instructions
2016-12-20 12:53:27 10208 [Note] InnoDB: Initializing buffer pool, size = 128.0M
2016-12-20 12:53:27 10208 [Note] InnoDB: Completed initialization of buffer pool
2016-12-20 12:53:27 10208 [Note] InnoDB: Setting log file C:\Users\adalberto.nogueira\Desktop\USBWebServer\mysql\data\ib_logfile101 size to 5 MB
2016-12-20 12:53:27 10208 [Note] InnoDB: Setting log file C:\Users\adalberto.nogueira\Desktop\USBWebServer\mysql\data\ib_logfile1 size to 5 MB
2016-12-20 12:53:27 10208 [Note] InnoDB: Renaming log file C:\Users\adalberto.nogueira\Desktop\USBWebServer\mysql\data\ib_logfile101 to C:\Users\adalberto.nogueira\Desktop\USBWebServer\mysql\data\ib_logfile0
2016-12-20 12:53:27 10208 [Warning] InnoDB: New log files created, LSN=1626134
2016-12-20 12:53:27 10208 [Note] InnoDB: Highest supported file format is Barracuda.
2016-12-20 12:53:28 10208 [Note] InnoDB: 128 rollback segment(s) are active.
2016-12-20 12:53:28 10208 [Note] InnoDB: Waiting for purge to start
2016-12-20 12:53:28 10208 [Note] InnoDB: 5.6.13 started; log sequence number 1626636
2016-12-20 12:53:28 10208 [Warning] No existing UUID has been found, so we assume that this is the first time that this server has been started. Generating a new UUID: 10e859d0-c6c4-11e6-a2fa-6c626d0bfcc7.
2016-12-20 12:53:28 10208 [Note] Server hostname (bind-address): '*'; port: 3307
2016-12-20 12:53:28 10208 [Note] IPv6 is available.
2016-12-20 12:53:28 10208 [Note]   - '::' resolves to '::';
2016-12-20 12:53:28 10208 [Note] Server socket created on IP: '::'.
2016-12-22 13:22:37 5680 [Note] Plugin 'FEDERATED' is disabled.
2016-12-22 13:22:37 5680 [Note] InnoDB: The InnoDB memory heap is disabled
2016-12-22 13:22:37 5680 [Note] InnoDB: Mutexes and rw_locks use Windows interlocked functions
2016-12-22 13:22:37 5680 [Note] InnoDB: Compressed tables use zlib 1.2.3
2016-12-22 13:22:37 5680 [Note] InnoDB: Not using CPU crc32 instructions
2016-12-22 13:22:37 5680 [Note] InnoDB: Initializing buffer pool, size = 128.0M
2016-12-22 13:22:37 5680 [Note] InnoDB: Completed initialization of buffer pool
2016-12-22 13:22:37 5680 [Note] InnoDB: Highest supported file format is Barracuda.
2016-12-22 13:22:37 5680 [Note] InnoDB: The log sequence numbers 1626134 and 1626134 in ibdata files do not match the log sequence number 1626646 in the ib_logfiles!
2016-12-22 13:22:37 5680 [Note] InnoDB: Database was not shutdown normally!
2016-12-22 13:22:37 5680 [Note] InnoDB: Starting crash recovery.
2016-12-22 13:22:37 5680 [Note] InnoDB: Reading tablespace information from the .ibd files...
2016-12-22 13:22:37 5680 [Note] InnoDB: Restoring possible half-written data pages 
2016-12-22 13:22:37 5680 [Note] InnoDB: from the doublewrite buffer...
2016-12-22 13:22:38 5680 [Note] InnoDB: 128 rollback segment(s) are active.
2016-12-22 13:22:38 5680 [Note] InnoDB: Waiting for purge to start
2016-12-22 13:22:38 5680 [Note] InnoDB: 5.6.13 started; log sequence number 1626646
2016-12-22 13:22:38 5680 [Note] Server hostname (bind-address): '*'; port: 3307
2016-12-22 13:22:38 5680 [Note] IPv6 is available.
2016-12-22 13:22:38 5680 [Note]   - '::' resolves to '::';
2016-12-22 13:22:38 5680 [Note] Server socket created on IP: '::'.
2016-12-27 12:36:41 3852 [Note] Plugin 'FEDERATED' is disabled.
2016-12-27 12:36:41 3852 [Note] InnoDB: The InnoDB memory heap is disabled
2016-12-27 12:36:41 3852 [Note] InnoDB: Mutexes and rw_locks use Windows interlocked functions
2016-12-27 12:36:41 3852 [Note] InnoDB: Compressed tables use zlib 1.2.3
2016-12-27 12:36:41 3852 [Note] InnoDB: Not using CPU crc32 instructions
2016-12-27 12:36:41 3852 [Note] InnoDB: Initializing buffer pool, size = 128.0M
2016-12-27 12:36:41 3852 [Note] InnoDB: Completed initialization of buffer pool
2016-12-27 12:36:41 3852 [Note] InnoDB: Highest supported file format is Barracuda.
2016-12-27 12:36:41 3852 [Note] InnoDB: The log sequence numbers 1626134 and 1626134 in ibdata files do not match the log sequence number 1626656 in the ib_logfiles!
2016-12-27 12:36:41 3852 [Note] InnoDB: Database was not shutdown normally!
2016-12-27 12:36:41 3852 [Note] InnoDB: Starting crash recovery.
2016-12-27 12:36:41 3852 [Note] InnoDB: Reading tablespace information from the .ibd files...
2016-12-27 12:36:41 3852 [Note] InnoDB: Restoring possible half-written data pages 
2016-12-27 12:36:41 3852 [Note] InnoDB: from the doublewrite buffer...
2016-12-27 12:36:42 3852 [Note] InnoDB: 128 rollback segment(s) are active.
2016-12-27 12:36:42 3852 [Note] InnoDB: Waiting for purge to start
2016-12-27 12:36:42 3852 [Note] InnoDB: 5.6.13 started; log sequence number 1626656
2016-12-27 12:36:42 3852 [Note] Server hostname (bind-address): '*'; port: 3307
2016-12-27 12:36:42 3852 [Note] IPv6 is available.
2016-12-27 12:36:42 3852 [Note]   - '::' resolves to '::';
2016-12-27 12:36:42 3852 [Note] Server socket created on IP: '::'.
2016-12-27 12:36:50 3564 [Note] Plugin 'FEDERATED' is disabled.
2016-12-27 12:36:50 3564 [Note] InnoDB: The InnoDB memory heap is disabled
2016-12-27 12:36:50 3564 [Note] InnoDB: Mutexes and rw_locks use Windows interlocked functions
2016-12-27 12:36:50 3564 [Note] InnoDB: Compressed tables use zlib 1.2.3
2016-12-27 12:36:50 3564 [Note] InnoDB: Not using CPU crc32 instructions
2016-12-27 12:36:50 3564 [Note] InnoDB: Initializing buffer pool, size = 128.0M
2016-12-27 12:36:50 3564 [Note] InnoDB: Completed initialization of buffer pool
2016-12-27 12:36:50 3564 [Note] InnoDB: Highest supported file format is Barracuda.
2016-12-27 12:36:50 3564 [Note] InnoDB: The log sequence numbers 1626134 and 1626134 in ibdata files do not match the log sequence number 1626666 in the ib_logfiles!
2016-12-27 12:36:50 3564 [Note] InnoDB: Database was not shutdown normally!
2016-12-27 12:36:50 3564 [Note] InnoDB: Starting crash recovery.
2016-12-27 12:36:50 3564 [Note] InnoDB: Reading tablespace information from the .ibd files...
2016-12-27 12:36:50 3564 [Note] InnoDB: Restoring possible half-written data pages 
2016-12-27 12:36:50 3564 [Note] InnoDB: from the doublewrite buffer...
2016-12-27 12:36:50 3564 [Note] InnoDB: 128 rollback segment(s) are active.
2016-12-27 12:36:50 3564 [Note] InnoDB: Waiting for purge to start
2016-12-27 12:36:50 3564 [Note] InnoDB: 5.6.13 started; log sequence number 1626666
2016-12-27 12:36:50 3564 [Note] Server hostname (bind-address): '*'; port: 3307
2016-12-27 12:36:50 3564 [Note] IPv6 is available.
2016-12-27 12:36:50 3564 [Note]   - '::' resolves to '::';
2016-12-27 12:36:50 3564 [Note] Server socket created on IP: '::'.
2016-12-27 12:36:58 7748 [Note] Plugin 'FEDERATED' is disabled.
2016-12-27 12:36:58 7748 [Note] InnoDB: The InnoDB memory heap is disabled
2016-12-27 12:36:58 7748 [Note] InnoDB: Mutexes and rw_locks use Windows interlocked functions
2016-12-27 12:36:58 7748 [Note] InnoDB: Compressed tables use zlib 1.2.3
2016-12-27 12:36:58 7748 [Note] InnoDB: Not using CPU crc32 instructions
2016-12-27 12:36:58 7748 [Note] InnoDB: Initializing buffer pool, size = 128.0M
2016-12-27 12:36:58 7748 [Note] InnoDB: Completed initialization of buffer pool
2016-12-27 12:36:58 7748 [Note] InnoDB: Highest supported file format is Barracuda.
2016-12-27 12:36:58 7748 [Note] InnoDB: The log sequence numbers 1626134 and 1626134 in ibdata files do not match the log sequence number 1626676 in the ib_logfiles!
2016-12-27 12:36:58 7748 [Note] InnoDB: Database was not shutdown normally!
2016-12-27 12:36:58 7748 [Note] InnoDB: Starting crash recovery.
2016-12-27 12:36:58 7748 [Note] InnoDB: Reading tablespace information from the .ibd files...
2016-12-27 12:36:58 7748 [Note] InnoDB: Restoring possible half-written data pages 
2016-12-27 12:36:58 7748 [Note] InnoDB: from the doublewrite buffer...
2016-12-27 12:36:58 7748 [Note] InnoDB: 128 rollback segment(s) are active.
2016-12-27 12:36:58 7748 [Note] InnoDB: Waiting for purge to start
2016-12-27 12:36:58 7748 [Note] InnoDB: 5.6.13 started; log sequence number 1626676
2016-12-27 12:36:58 7748 [Note] Server hostname (bind-address): '*'; port: 3307
2016-12-27 12:36:58 7748 [Note] IPv6 is available.
2016-12-27 12:36:58 7748 [Note]   - '::' resolves to '::';
2016-12-27 12:36:58 7748 [Note] Server socket created on IP: '::'.
2016-12-28 12:54:02 11212 [Note] Plugin 'FEDERATED' is disabled.
2016-12-28 12:54:02 11212 [Note] InnoDB: The InnoDB memory heap is disabled
2016-12-28 12:54:02 11212 [Note] InnoDB: Mutexes and rw_locks use Windows interlocked functions
2016-12-28 12:54:02 11212 [Note] InnoDB: Compressed tables use zlib 1.2.3
2016-12-28 12:54:02 11212 [Note] InnoDB: Not using CPU crc32 instructions
2016-12-28 12:54:02 11212 [Note] InnoDB: Initializing buffer pool, size = 128.0M
2016-12-28 12:54:02 11212 [Note] InnoDB: Completed initialization of buffer pool
2016-12-28 12:54:02 11212 [Note] InnoDB: Highest supported file format is Barracuda.
2016-12-28 12:54:02 11212 [Note] InnoDB: The log sequence numbers 1626134 and 1626134 in ibdata files do not match the log sequence number 1626686 in the ib_logfiles!
2016-12-28 12:54:02 11212 [Note] InnoDB: Database was not shutdown normally!
2016-12-28 12:54:02 11212 [Note] InnoDB: Starting crash recovery.
2016-12-28 12:54:02 11212 [Note] InnoDB: Reading tablespace information from the .ibd files...
2016-12-28 12:54:02 11212 [Note] InnoDB: Restoring possible half-written data pages 
2016-12-28 12:54:02 11212 [Note] InnoDB: from the doublewrite buffer...
2016-12-28 12:54:03 11212 [Note] InnoDB: 128 rollback segment(s) are active.
2016-12-28 12:54:03 11212 [Note] InnoDB: Waiting for purge to start
2016-12-28 12:54:03 11212 [Note] InnoDB: 5.6.13 started; log sequence number 1626686
2016-12-28 12:54:03 11212 [Note] Server hostname (bind-address): '*'; port: 3307
2016-12-28 12:54:03 11212 [Note] IPv6 is available.
2016-12-28 12:54:03 11212 [Note]   - '::' resolves to '::';
2016-12-28 12:54:03 11212 [Note] Server socket created on IP: '::'.
2016-12-29 14:56:16 484 [Note] Plugin 'FEDERATED' is disabled.
2016-12-29 14:56:16 484 [Note] InnoDB: The InnoDB memory heap is disabled
2016-12-29 14:56:16 484 [Note] InnoDB: Mutexes and rw_locks use Windows interlocked functions
2016-12-29 14:56:16 484 [Note] InnoDB: Compressed tables use zlib 1.2.3
2016-12-29 14:56:16 484 [Note] InnoDB: Not using CPU crc32 instructions
2016-12-29 14:56:16 484 [Note] InnoDB: Initializing buffer pool, size = 128.0M
2016-12-29 14:56:16 484 [Note] InnoDB: Completed initialization of buffer pool
2016-12-29 14:56:16 484 [Note] InnoDB: Highest supported file format is Barracuda.
2016-12-29 14:56:16 484 [Note] InnoDB: The log sequence numbers 1626134 and 1626134 in ibdata files do not match the log sequence number 1737998 in the ib_logfiles!
2016-12-29 14:56:16 484 [Note] InnoDB: Database was not shutdown normally!
2016-12-29 14:56:16 484 [Note] InnoDB: Starting crash recovery.
2016-12-29 14:56:16 484 [Note] InnoDB: Reading tablespace information from the .ibd files...
2016-12-29 14:56:16 484 [Note] InnoDB: Restoring possible half-written data pages 
2016-12-29 14:56:16 484 [Note] InnoDB: from the doublewrite buffer...
2016-12-29 14:56:17 484 [Note] InnoDB: 128 rollback segment(s) are active.
2016-12-29 14:56:17 484 [Note] InnoDB: Waiting for purge to start
2016-12-29 14:56:17 484 [Note] InnoDB: 5.6.13 started; log sequence number 1737998
2016-12-29 14:56:17 484 [Note] Server hostname (bind-address): '*'; port: 3307
2016-12-29 14:56:17 484 [Note] IPv6 is available.
2016-12-29 14:56:17 484 [Note]   - '::' resolves to '::';
2016-12-29 14:56:17 484 [Note] Server socket created on IP: '::'.
